{
  "Servers": {
    "1": {
      "Name": "SuperAdmin",
      "Group": "Servers",
      "Host": "postgres_server",
      "Port": "5432",
      "MaintenanceDB": "postgres",
      "Username": "kisphp_user",
      "SSLMode": "prefer",
      "PassFile": "/pgpassfile"
    }
  }
}
